Badge 5 - Word Frequency, Summarising and Visualising your data
…
What are the most commonly used words in our data?

We use the tidytext package to tokenise to words (unnest _tokens function you saw in the previous badge) and we count the tokens.

This gives us a tibble table with the word in one column and the count in a column labelled 'n'

mydata_word_counts <- mydata_TB %>% 
  unnest_tokens(output = word, input= text) %>%
  count(word, sort = TRUE) 

#see the output table
mydata_word_counts 

# A tibble: 13,966 × 2
   word            n
   <chr>       <int>
 1 the          4271
 2 to           3746
 3 and          2461
 4 of           2071
 5 in           1853
 6 t.co         1824
 7 https        1823
 8 a            1820
 9 covid_19     1541
10 coronavirus  1525
# ℹ 13,956 more rows
…
#same again but this time using the group_by to group by Location column value
mydata_words_byLocation <- mydata_TB %>%
    group_by(Location) %>%
    unnest_tokens(output = word, input= text) %>%
    count(word, sort = TRUE) 

#see the output table
mydata_words_byLocation

# A tibble: 15,653 × 3
# Groups:   Location [2]
   Location word            n
   <chr>    <chr>       <int>
 1 UK       the          4006
 2 UK       to           3517
 3 UK       and          2336
 4 UK       of           1949
 5 UK       in           1744
 6 UK       t.co         1724
 7 UK       https        1723
 8 UK       a            1704
 9 UK       covid_19     1456
10 UK       coronavirus  1422
# ℹ 15,643 more rows
…
#Create custom stop word list
stop_words_expanded <- data.frame(word = c("https", "t.co"), lexicon = "custom") %>%
  rbind(stop_words)
#above: create a dataframe with your own stopwords, and right-bind to it (add to it) to the usual stop_words. Then use that new stopwords variable. Notice use of Pipe!

mydata_TB %>% 
  unnest_tokens(word, text) %>%
  anti_join(stop_words_expanded) %>% 
  count(word, sort = TRUE) %>%
  top_n(30) 

Joining with `by = join_by(word)`
Selecting by n

# A tibble: 30 × 2
   word            n
   <chr>       <int>
 1 covid_19     1541
 2 coronavirus  1525
 3 food         1367
 4 store        1028
 5 grocery       823
 6 19            816
 7 covid         816
 8 stock         795
 9 people        792
10 amp           610
# ℹ 20 more rows
…
Joining with `by = join_by(word)`

mydata_word_freq %>%
  bind_tf_idf(word, Location, n) %>%
  arrange(desc(tf_idf))

# A tibble: 14,673 × 6
   Location word             n       tf   idf   tf_idf
   <chr>    <chr>        <int>    <dbl> <dbl>    <dbl>
 1 UK       roll            67 0.00108  0.693 0.000745
 2 USA      emergencyubi     4 0.000982 0.693 0.000681
 3 UK       banks           50 0.000802 0.693 0.000556
 4 UK       worried         46 0.000738 0.693 0.000512
 5 USA      liquidity        3 0.000736 0.693 0.000510
 6 USA      lng              3 0.000736 0.693 0.000510
 7 UK       selling         43 0.000690 0.693 0.000478
 8 UK       essentials      41 0.000658 0.693 0.000456
 9 UK       hard            41 0.000658 0.693 0.000456
10 UK       rice            39 0.000626 0.693 0.000434
# ℹ 14,663 more rows
…
They can stimulate us to think on what and how we want to analyse the data.

#this counts the words in the text column removing stop words
cloud_words <-  mydata_TB %>%
  select(text) %>%
  unnest_tokens(word, text) %>% 
  anti_join(stop_words)

Joining with `by = join_by(word)`

#This sorts (orders) the counts of the words
words <- cloud_words %>% count(word, sort=TRUE)
print(words)

# A tibble: 13,346 × 2
   word            n
   <chr>       <int>
 1 t.co         1824
 2 https        1823
 3 covid_19     1541
 4 coronavirus  1525
 5 food         1367
 6 store        1028
 7 grocery       823
 8 19            816
 9 covid         816
10 stock         795
# ℹ 13,336 more rows
…
#Create and count bigrams
mydata_words_bigrams <- mydata_TB %>%
  unnest_tokens(bigram, text, 
                token = "ngrams", n = 2) %>%
  separate(bigram, c("word1", "word2"),
           sep = " ") %>%
  filter(!word1 %in% final_stop$word) %>% #uses the combined preset and custom list
  filter(!word2 %in% final_stop$word)

mydata_words_bigrams

# A tibble: 29,509 × 7
   doc_id ScreenName Location TweetAt    Sentiment          word1       word2   
    <int>      <int> <chr>    <chr>      <chr>              <chr>       <chr>   
 1      1      44953 UK       02/03/2020 Extremely Negative yorkers     encount…
 2      1      44953 UK       02/03/2020 Extremely Negative encounter   empty   
 3      1      44953 UK       02/03/2020 Extremely Negative empty       superma…
 4      1      44953 UK       02/03/2020 Extremely Negative supermarket shelves 
 5      1      44953 UK       02/03/2020 Extremely Negative shelves     pictured
 6      1      44953 UK       02/03/2020 Extremely Negative pictured    wegmans 
 7      1      44953 UK       02/03/2020 Extremely Negative brooklyn    sold    
 8      1      44953 UK       02/03/2020 Extremely Negative online      grocers 
 9      1      44953 UK       02/03/2020 Extremely Negative grocers     foodkick
10      1      44953 UK       02/03/2020 Extremely Negative foodkick    maxdeli…
# ℹ 29,499 more rows
…
