BADGE 2-4 Cleaning & Preprocessing
…
[1] 6 4 4

OK, back to the tokens:

# The unnest_tokens function is given three arguments:
# - the 'piped' elements of my_text_df
# - 'word' which tells it to name the resulting column 'word'
# - name of the column in the tibble which should be used (in our example, we called that column 'text') 
# by default, the tokenisation is by words, but you can change that with the 'token' argument
my_text_df %>% unnest_tokens(word,text) 

# A tibble: 43 × 2
    line word  
   <int> <chr> 
 1     1 oh    
 2     1 what  
 3     1 a     
 4     1 lovely
 5     1 day   
 6     1 it    
 7     1 is    
 8     1 for   
 9     1 today 
10     1 we    
# ℹ 33 more rows

# but why bother with the pipe?
unnest_tokens(my_text_df, 
              # output column name
              word, 
              # input column name
              text,
              # what to tokenise by (default `word`)
              token = "words")

# A tibble: 43 × 2
    line word  
   <int> <chr> 
 1     1 oh    
 2     1 what  
 3     1 a     
 4     1 lovely
 5     1 day   
 6     1 it    
 7     1 is    
 8     1 for   
 9     1 today 
10     1 we    
# ℹ 33 more rows

It is possible to lowercase text and strip punctuation whilst unnesting the tokens. Punctuation is removed by default, where unnest_tokens assumes you said strip_punct = TRUE if you said nothing to the contrary (because it is so common). But if you actually want to keep punctuation, you need to request it specifically with strip_punct = FALSE.

By default unnest_tokens converts text to lowercase you can turn this off by to_lower=FALSE as an argument. This can be useful at this stage as you try to understand the data. And losing sizes of letters might hide some meanings.

unnest_tokens(my_text_df, word, text, to_lower = FALSE, strip_punct = TRUE)

# A tibble: 43 × 2
    line word  
   <int> <chr> 
 1     1 Oh    
 2     1 what  
 3     1 a     
 4     1 lovely
 5     1 day   
 6     1 it    
 7     1 is    
 8     1 for   
 9     1 today 
10     1 we    
# ℹ 33 more rows

N-grams: more than one word

In the example we tokenise by two word phrases and then by sentences.

Remember multiple words phrases are also called n-grams, where n represents the number of words 2-gram are called bigrams.

#tokenise by bigrams
my_text_df %>% unnest_tokens(ngram, text, token="ngrams", n=2) 

# A tibble: 41 × 2
    line ngram     
   <int> <chr>     
 1     1 oh what   
 2     1 what a    
 3     1 a lovely  
 4     1 lovely day
 5     1 day it    
 6     1 it is     
 7     1 is for    
 8     1 for today 
 9     1 today we  
10     1 we are    
# ℹ 31 more rows
…
