Badge 8 Named Entity Recognition
…
Below country_codes comes from loading the gapminder package. We use mutate to create an extra column called times_mentioned and use the str_count function to look for the country. Then with filter if a country is not mentioned we filter it out.

country_counts_just_words <- country_codes |>
  mutate(times_mentioned = str_count(corona_text, country)) |>
  filter(times_mentioned > 0)

#here we are rearranging country_counts_just_words by desc order of times mentioned
country_counts_just_words_ordered <- country_counts_just_words |>
  arrange(desc(times_mentioned))

country_counts_just_words_ordered

# A tibble: 75 × 4
   country   iso_alpha iso_num times_mentioned
   <chr>     <chr>       <int>           <int>
 1 Canada    CAN           124              72
 2 China     CHN           156              50
 3 Italy     ITA           380              36
 4 India     IND           356              27
 5 Kenya     KEN           404              18
 6 Russia    RUS           643              17
 7 Belgium   BEL            56              14
 8 Spain     ESP           724              12
 9 Australia AUS            36              11
10 Qatar     QAT           634               9
# ℹ 65 more rows
…
