Badge 8 Named Entity Recognition
…
Below country_codes comes from loading the gapminder package. We use mutate to create an extra column called times_mentioned and use the str_count function to look for the country. Then with filter if a country is not mentioned we filter it out.

country_counts_just_words <- country_codes |>
  mutate(times_mentioned = str_count(corona_text, country)) |>
  filter(times_mentioned > 0)

#here we are rearranging country_counts_just_words by desc order of times mentioned
country_counts_just_words_ordered <- country_counts_just_words |>
  arrange(desc(times_mentioned))

country_counts_just_words_ordered

# A tibble: 75 × 4
   country   iso_alpha iso_num times_mentioned
   <chr>     <chr>       <int>           <int>
 1 Canada    CAN           124              72
 2 China     CHN           156              50
 3 Italy     ITA           380              36
 4 India     IND           356              27
 5 Kenya     KEN           404              18
 6 Russia    RUS           643              17
 7 Belgium   BEL            56              14
 8 Spain     ESP           724              12
 9 Australia AUS            36              11
10 Qatar     QAT           634               9
# ℹ 65 more rows
…
#Now we create a datframe, first removing any columns with NULL as Location and then unnest the entries where there are multiple countries in a tweet.
country_counts_from_recogniser  <- Corona_NLP_DF %>% 
  filter(!is.null(Loc)) %>%
  unnest(Loc) %>%
  select(c(Loc, row))

country_counts_from_recogniser_ordered<-country_counts_from_recogniser  %>% 
  count(Loc)  %>% 
  arrange(desc(n)) 
#different way to do the count above 
#country_counts_from_recogniser_ordered <- country_counts_from_recogniser %>% group_by(Loc) %>% count()
country_counts_from_recogniser_ordered

# A tibble: 270 × 2
   Loc            n
   <chr>      <int>
 1 China         38
 2 Amazon        33
 3 Italy         27
 4 Canada        20
 5 California    12
 6 Europe        11
 7 Toronto       10
 8 Spain          9
 9 Wash           9
10 America        8
# ℹ 260 more rows

ACTIVITY: Take a look at the two dataframes above country_counts_just_words_ordered and country_counts_from_recogniser_ordered

country_counts_just_words_ordered is the one you made at the top of this exercise with the lexicon from gapminder. country_counts_from_recogniser_ordered you created now. Can you spot the differences between them. Neither are perfect.

# run this to see them one next to another
country_counts_just_words_ordered

# A tibble: 75 × 4
   country   iso_alpha iso_num times_mentioned
   <chr>     <chr>       <int>           <int>
 1 Canada    CAN           124              72
 2 China     CHN           156              50
 3 Italy     ITA           380              36
 4 India     IND           356              27
 5 Kenya     KEN           404              18
 6 Russia    RUS           643              17
 7 Belgium   BEL            56              14
 8 Spain     ESP           724              12
 9 Australia AUS            36              11
10 Qatar     QAT           634               9
# ℹ 65 more rows

country_counts_from_recogniser_ordered

# A tibble: 270 × 2
   Loc            n
   <chr>      <int>
 1 China         38
 2 Amazon        33
 3 Italy         27
 4 Canada        20
 5 California    12
 6 Europe        11
 7 Toronto       10
 8 Spain          9
 9 Wash           9
10 America        8
# ℹ 260 more rows
…
#creating a names data frame with collapsed list: locations_df
names_pp  <- pride_prejudice %>% 
  filter(!is.null(Name)) %>%
  unnest(Name) %>%
  select(c(Name, row))

ordered_names_pp<- names_pp |>
  count(Name) |>
  arrange(desc(n)) 

ordered_names_pp

# A tibble: 133 × 2
   Name             n
   <chr>        <int>
 1 Elizabeth      435
 2 Jane           168
 3 Mr. Collins     75
 4 Catherine       68
 5 Lucas           36
 6 George Allen    33
 7 Mary            33
 8 William         24
 9 Mrs. Bennet     18
10 Mrs. Collins    15
# ℹ 123 more rows
…
